{
  "id": "1c7a97a5-0003-47ee-9608-76016af5f493",
  "schema": "https://metadata.datadrivendiscovery.org/schemas/v0/pipeline.json",
  "created": "2019-06-05T19:31:59.873769Z",
  "inputs": [
    {
      "name": "input dataset"
    }
  ],
  "outputs": [
    {
      "data": "steps.12.produce",
      "name": "predictions of input dataset"
    }
  ],
  "steps": [
    {
      "type": "PRIMITIVE",
      "primitive": {
        "id": "f31f8c1f-d1c5-43e5-a4b2-2ae4a761ef2e",
        "version": "0.2.0",
        "python_path": "d3m.primitives.data_transformation.denormalize.Common",
        "name": "Denormalize datasets",
        "digest": "afca078f05899b9f329e1b8cc0973848e39e83a7521d2cade81c1fbad5cf8139"
      },
      "arguments": {
        "inputs": {
          "type": "CONTAINER",
          "data": "inputs.0"
        }
      },
      "outputs": [
        {
          "id": "produce"
        }
      ],
      "hyperparams": {
        "starting_resource": {
          "type": "VALUE",
          "data": null
        },
        "recursive": {
          "type": "VALUE",
          "data": true
        },
        "many_to_many": {
          "type": "VALUE",
          "data": false
        },
        "discard_not_joined_tabular_resources": {
          "type": "VALUE",
          "data": false
        }
      }
    },
    {
      "type": "PRIMITIVE",
      "primitive": {
        "id": "4b42ce1e-9b98-4a25-b68e-fad13311eb65",
        "version": "0.3.0",
        "python_path": "d3m.primitives.data_transformation.dataset_to_dataframe.Common",
        "name": "Extract a DataFrame from a Dataset",
        "digest": "e557fc176af67913ed241dbe793cf986439157cfe9c4a12f1aafcba3c07b8b6f"
      },
      "arguments": {
        "inputs": {
          "type": "CONTAINER",
          "data": "steps.0.produce"
        }
      },
      "outputs": [
        {
          "id": "produce"
        }
      ]
    },
    {
      "type": "PRIMITIVE",
      "primitive": {
        "id": "4503a4c6-42f7-45a1-a1d4-ed69699cf5e1",
        "version": "0.2.0",
        "python_path": "d3m.primitives.data_transformation.extract_columns_by_semantic_types.DataFrameCommon",
        "name": "Extracts columns by semantic type",
        "digest": "d4fa27a3e215b89d2231d344ec0202e1b8e41ad322deb79c68fd6ca673eae3f7"
      },
      "arguments": {
        "inputs": {
          "type": "CONTAINER",
          "data": "steps.1.produce"
        }
      },
      "outputs": [
        {
          "id": "produce"
        }
      ],
      "hyperparams": {
        "semantic_types": {
          "type": "VALUE",
          "data": [
            "https://metadata.datadrivendiscovery.org/types/PrimaryKey",
            "https://metadata.datadrivendiscovery.org/types/Attribute"
          ]
        }
      }
    },
    {
      "type": "PRIMITIVE",
      "primitive": {
        "id": "b2612849-39e4-33ce-bfda-24f3e2cb1e93",
        "version": "1.5.3",
        "python_path": "d3m.primitives.schema_discovery.profiler.DSBOX",
        "name": "DSBox Profiler",
        "digest": "d9ec8f170278e82bda5fca53e87e7a88617cc1e31a2cb1c53efe4f452648c801"
      },
      "arguments": {
        "inputs": {
          "type": "CONTAINER",
          "data": "steps.2.produce"
        }
      },
      "outputs": [
        {
          "id": "produce"
        }
      ]
    },
    {
      "type": "PRIMITIVE",
      "primitive": {
        "id": "dsbox-featurizer-do-nothing",
        "version": "1.5.3",
        "python_path": "d3m.primitives.data_preprocessing.do_nothing.DSBOX",
        "name": "DSBox do-nothing primitive",
        "digest": "3eff0c573bb28771551a59790e5b28bd2999aea24e0c20c94c8cc2a7f1e13435"
      },
      "arguments": {
        "inputs": {
          "type": "CONTAINER",
          "data": "steps.3.produce"
        }
      },
      "outputs": [
        {
          "id": "produce"
        }
      ]
    },
    {
      "type": "PRIMITIVE",
      "primitive": {
        "id": "18f0bb42-6350-3753-8f2d-d1c3da70f279",
        "version": "1.5.3",
        "python_path": "d3m.primitives.data_preprocessing.encoder.DSBOX",
        "name": "ISI DSBox Data Encoder",
        "digest": "6e8ad1922cdee5c06822e4b51f149c120734d196747435b5efb02abf9ab3eeb7"
      },
      "arguments": {
        "inputs": {
          "type": "CONTAINER",
          "data": "steps.4.produce"
        }
      },
      "outputs": [
        {
          "id": "produce"
        }
      ]
    },
    {
      "type": "PRIMITIVE",
      "primitive": {
        "id": "dsbox-featurizer-do-nothing",
        "version": "1.5.3",
        "python_path": "d3m.primitives.data_preprocessing.do_nothing.DSBOX",
        "name": "DSBox do-nothing primitive",
        "digest": "3eff0c573bb28771551a59790e5b28bd2999aea24e0c20c94c8cc2a7f1e13435"
      },
      "arguments": {
        "inputs": {
          "type": "CONTAINER",
          "data": "steps.5.produce"
        }
      },
      "outputs": [
        {
          "id": "produce"
        }
      ]
    },
    {
      "type": "PRIMITIVE",
      "primitive": {
        "id": "7ddf2fd8-2f7f-4e53-96a7-0d9f5aeecf93",
        "version": "1.5.3",
        "python_path": "d3m.primitives.data_transformation.to_numeric.DSBOX",
        "name": "ISI DSBox To Numeric DataFrame",
        "digest": "2756820b9b3fc0d406b7cd832f662a69874acfbbc934e4f99a5105a5b257a9c5"
      },
      "arguments": {
        "inputs": {
          "type": "CONTAINER",
          "data": "steps.6.produce"
        }
      },
      "outputs": [
        {
          "id": "produce"
        }
      ]
    },
    {
      "type": "PRIMITIVE",
      "primitive": {
        "id": "f70b2324-1102-35f7-aaf6-7cd8e860acc4",
        "version": "1.5.3",
        "python_path": "d3m.primitives.data_preprocessing.iterative_regression_imputation.DSBOX",
        "name": "DSBox Iterative Regression Imputer",
        "digest": "51c5e20e06f89216c574e8337d868ca9ab8a7fad5912eb4b4b3ec378fb332b84"
      },
      "arguments": {
        "inputs": {
          "type": "CONTAINER",
          "data": "steps.7.produce"
        }
      },
      "outputs": [
        {
          "id": "produce"
        }
      ]
    },
    {
      "type": "PRIMITIVE",
      "primitive": {
        "id": "64d2ef5d-b221-3033-8342-76d0293fa99c",
        "version": "2019.6.7",
        "python_path": "d3m.primitives.data_preprocessing.max_abs_scaler.SKlearn",
        "name": "sklearn.preprocessing.data.MaxAbsScaler",
        "digest": "a5a14086567528447ee97fb989fa47634c0ade89cee2f30251dbde612e9e5761"
      },
      "arguments": {
        "inputs": {
          "type": "CONTAINER",
          "data": "steps.8.produce"
        }
      },
      "outputs": [
        {
          "id": "produce"
        }
      ],
      "hyperparams": {
        "add_index_columns": {
          "type": "VALUE",
          "data": true
        },
        "use_semantic_types": {
          "type": "VALUE",
          "data": true
        }
      }
    },
    {
      "type": "PRIMITIVE",
      "primitive": {
        "id": "4503a4c6-42f7-45a1-a1d4-ed69699cf5e1",
        "version": "0.2.0",
        "python_path": "d3m.primitives.data_transformation.extract_columns_by_semantic_types.DataFrameCommon",
        "name": "Extracts columns by semantic type",
        "digest": "d4fa27a3e215b89d2231d344ec0202e1b8e41ad322deb79c68fd6ca673eae3f7"
      },
      "arguments": {
        "inputs": {
          "type": "CONTAINER",
          "data": "steps.1.produce"
        }
      },
      "outputs": [
        {
          "id": "produce"
        }
      ],
      "hyperparams": {
        "semantic_types": {
          "type": "VALUE",
          "data": [
            "https://metadata.datadrivendiscovery.org/types/TrueTarget"
          ]
        }
      }
    },
    {
      "type": "PRIMITIVE",
      "primitive": {
        "id": "7ddf2fd8-2f7f-4e53-96a7-0d9f5aeecf93",
        "version": "1.5.3",
        "python_path": "d3m.primitives.data_transformation.to_numeric.DSBOX",
        "name": "ISI DSBox To Numeric DataFrame",
        "digest": "2756820b9b3fc0d406b7cd832f662a69874acfbbc934e4f99a5105a5b257a9c5"
      },
      "arguments": {
        "inputs": {
          "type": "CONTAINER",
          "data": "steps.10.produce"
        }
      },
      "outputs": [
        {
          "id": "produce"
        }
      ],
      "hyperparams": {
        "drop_non_numeric_columns": {
          "type": "VALUE",
          "data": false
        }
      }
    },
    {
      "type": "PRIMITIVE",
      "primitive": {
        "id": "01d2c086-91bf-3ca5-b023-5139cf239c77",
        "version": "2019.6.7",
        "python_path": "d3m.primitives.classification.gradient_boosting.SKlearn",
        "name": "sklearn.ensemble.gradient_boosting.GradientBoostingClassifier",
        "digest": "3b5eab6aa4279356f83d219f9e943792eded4ba7baae4b99e7ed34a9af949bcd"
      },
      "arguments": {
        "inputs": {
          "type": "CONTAINER",
          "data": "steps.9.produce"
        },
        "outputs": {
          "type": "CONTAINER",
          "data": "steps.11.produce"
        }
      },
      "outputs": [
        {
          "id": "produce"
        }
      ],
      "hyperparams": {
        "max_depth": {
          "type": "VALUE",
          "data": 5
        },
        "n_estimators": {
          "type": "VALUE",
          "data": 100
        },
        "learning_rate": {
          "type": "VALUE",
          "data": 0.1
        },
        "min_samples_split": {
          "type": "VALUE",
          "data": {
            "case": "absolute",
            "value": 2
          }
        },
        "min_samples_leaf": {
          "type": "VALUE",
          "data": {
            "case": "absolute",
            "value": 1
          }
        },
        "add_index_columns": {
          "type": "VALUE",
          "data": true
        },
        "use_semantic_types": {
          "type": "VALUE",
          "data": true
        }
      }
    }
  ],
  "name": "default_text_classification_template:140536170402728",
  "description": "",
  "digest": "6f660bcbe002c2b4b01e2045240c3f17bc6ec404032ac7e7c507a6932d081e84"
}
