{
    "id": "011d8969-997b-480a-ad97-284c52c0bf8e",
    "schema": "https://metadata.datadrivendiscovery.org/schemas/v0/pipeline.json",
    "created": "2019-03-27T21:42:37.580648Z",
    "inputs": [
        {
            "name": "inputs"
        }
    ],
    "outputs": [
        {
            "data": "steps.18.produce",
            "name": "Output"
        }
    ],
    "steps": [
        {
            "type": "PRIMITIVE",
            "primitive": {
                "id": "4b42ce1e-9b98-4a25-b68e-fad13311eb65",
                "version": "0.3.0",
                "python_path": "d3m.primitives.data_transformation.dataset_to_dataframe.Common",
                "name": "Extract a DataFrame from a Dataset",
                "digest": "789969c6a4a81b25b04c95963721259599f8c43c90a6091e49f44c7fe08f51de"
            },
            "arguments": {
                "inputs": {
                    "type": "CONTAINER",
                    "data": "inputs.0"
                }
            },
            "outputs": [
                {
                    "id": "produce"
                }
            ]
        },
        {
            "type": "PRIMITIVE",
            "primitive": {
                "id": "d510cb7a-1782-4f51-b44c-58f0236e47c7",
                "version": "0.5.0",
                "python_path": "d3m.primitives.data_transformation.column_parser.DataFrameCommon",
                "name": "Parses strings into their types",
                "digest": "f745c190eda8f0fd36e1526e963441dc0c28f3c36218199d3e21145f785a74ad"
            },
            "arguments": {
                "inputs": {
                    "type": "CONTAINER",
                    "data": "steps.0.produce"
                }
            },
            "outputs": [
                {
                    "id": "produce"
                }
            ]
        },
        {
            "type": "PRIMITIVE",
            "primitive": {
                "id": "ebfeb6f0-e366-4082-b1a7-602fd50acc96",
                "version": "0.1.4",
                "python_path": "d3m.primitives.data_preprocessing.random_sampling_imputer.BYU",
                "name": "Random Sampling Imputer",
                "digest": "5588dc61d64ae0442b07f51dbe6504bb340aeabe1e8d06b0e85bb95eaf71c041"
            },
            "arguments": {
                "inputs": {
                    "type": "CONTAINER",
                    "data": "steps.1.produce"
                }
            },
            "outputs": [
                {
                    "id": "produce"
                }
            ]
        },
        {
            "type": "PRIMITIVE",
            "primitive": {
                "id": "4503a4c6-42f7-45a1-a1d4-ed69699cf5e1",
                "version": "0.2.0",
                "python_path": "d3m.primitives.data_transformation.extract_columns_by_semantic_types.DataFrameCommon",
                "name": "Extracts columns by semantic type",
                "digest": "57db870295ef8a63e62429950d7e19c417f07bb9e52124e1f9065b2b0cd55a11"
            },
            "arguments": {
                "inputs": {
                    "type": "CONTAINER",
                    "data": "steps.0.produce"
                }
            },
            "outputs": [
                {
                    "id": "produce"
                }
            ],
            "hyperparams": {
                "semantic_types": {
                    "type": "VALUE",
                    "data": [
                        "https://metadata.datadrivendiscovery.org/types/TrueTarget"
                    ]
                }
            }
        },
        {
            "type": "PRIMITIVE",
            "primitive": {
              "id": "7ddf2fd8-2f7f-4e53-96a7-0d9f5aeecf93",
              "version": "1.5.2",
              "python_path": "d3m.primitives.data_transformation.to_numeric.DSBOX",
              "name": "ISI DSBox To Numeric DataFrame",
              "digest": "571beb63f5a194d54fe181fe938cecfde2e5da70d4c990693c50a83982cab8fc"
            },
            "arguments": {
              "inputs": {
                "type": "CONTAINER",
                "data": "steps.3.produce"
              }
            },
            "outputs": [
              {
                "id": "produce"
              }
            ],
            "hyperparams": {
              "drop_non_numeric_columns": {
                "type": "VALUE",
                "data": false
              }
            }
          },     
        {
            "type": "PRIMITIVE",
            "primitive": {
                "id": "09a4cffa-a59f-30ac-b78f-101c35b3f7c6",
                "version": "2019.4.4",
                "python_path": "d3m.primitives.feature_selection.select_fwe.SKlearn",
                "name": "sklearn.feature_selection.univariate_selection.SelectFwe",
                "digest": "590e458652f3b3b337c5cdbe7cc1604a11f9e74cb4cca1fb86fa903fa614e947"
            },
            "arguments": {
                "inputs": {
                    "type": "CONTAINER",
                    "data": "steps.2.produce"
                },
                "outputs": {
                    "type": "CONTAINER",
                    "data": "steps.4.produce"
                }
            },
            "outputs": [
                {
                    "id": "produce"
                }
            ],
            "hyperparams": {
                "use_semantic_types": {
                    "type": "VALUE",
                    "data": true
                },
                "return_result": {
                    "type": "VALUE",
                    "data": "replace"
                }
            }
        },
        {
            "type": "PRIMITIVE",
            "primitive": {
                "id": "1b2a32a6-0ec5-3ca0-9386-b8b1f1b831d1",
                "version": "2019.4.4",
                "python_path": "d3m.primitives.classification.bagging.SKlearn",
                "name": "sklearn.ensemble.bagging.BaggingClassifier",
                "digest": "e8e5d412dbff447c8a0eb3a8d775b2cd52054e835f0e48d019ebe32f470e6637"
            },
            "arguments": {
                "inputs": {
                    "type": "CONTAINER",
                    "data": "steps.5.produce"
                },
                "outputs": {
                    "type": "CONTAINER",
                    "data": "steps.5.produce"
                }
            },
            "outputs": [
                {
                    "id": "produce"
                }
            ],
            "hyperparams": {
                "use_semantic_types": {
                    "type": "VALUE",
                    "data": true
                },
                "return_result": {
                    "type": "VALUE",
                    "data": "replace"
                }
            }
        },
        {
            "type": "PRIMITIVE",
            "primitive": {
                "id": "8d38b340-f83f-4877-baaa-162f8e551736",
                "version": "0.3.0",
                "python_path": "d3m.primitives.data_transformation.construct_predictions.DataFrameCommon",
                "name": "Construct pipeline predictions output",
                "digest": "1bcf4fcd4ae79e0cb64033f471d6dbd7aab1ae71a65ed05ee21625e276a3ad0e"
            },
            "arguments": {
                "inputs": {
                    "type": "CONTAINER",
                    "data": "steps.6.produce"
                },
                "reference": {
                    "type": "CONTAINER",
                    "data": "steps.2.produce"
                }
            },
            "outputs": [
                {
                    "id": "produce"
                }
            ]
        },
        {
            "type": "PRIMITIVE",
            "primitive": {
                "id": "09a4cffa-a59f-30ac-b78f-101c35b3f7c6",
                "version": "2019.4.4",
                "python_path": "d3m.primitives.feature_selection.select_fwe.SKlearn",
                "name": "sklearn.feature_selection.univariate_selection.SelectFwe",
                "digest": "590e458652f3b3b337c5cdbe7cc1604a11f9e74cb4cca1fb86fa903fa614e947"
            },
            "arguments": {
                "inputs": {
                    "type": "CONTAINER",
                    "data": "steps.2.produce"
                },
                "outputs": {
                    "type": "CONTAINER",
                    "data": "steps.4.produce"
                }
            },
            "outputs": [
                {
                    "id": "produce"
                }
            ],
            "hyperparams": {
                "use_semantic_types": {
                    "type": "VALUE",
                    "data": true
                },
                "return_result": {
                    "type": "VALUE",
                    "data": "replace"
                }
            }
        },
        {
            "type": "PRIMITIVE",
            "primitive": {
                "id": "754f7210-a0b7-3b7a-8c98-f43c7b663d28",
                "version": "2019.4.4",
                "python_path": "d3m.primitives.classification.k_neighbors.SKlearn",
                "name": "sklearn.neighbors.classification.KNeighborsClassifier",
                "digest": "b129c219f13b933a6e4185891226563ada62941d3a76512c7a4962d749518d59"
            },
            "arguments": {
                "inputs": {
                    "type": "CONTAINER",
                    "data": "steps.8.produce"
                },
                "outputs": {
                    "type": "CONTAINER",
                    "data": "steps.8.produce"
                }
            },
            "outputs": [
                {
                    "id": "produce"
                }
            ],
            "hyperparams": {
                "use_semantic_types": {
                    "type": "VALUE",
                    "data": true
                },
                "return_result": {
                    "type": "VALUE",
                    "data": "replace"
                }
            }
        },
        {
            "type": "PRIMITIVE",
            "primitive": {
                "id": "8d38b340-f83f-4877-baaa-162f8e551736",
                "version": "0.3.0",
                "python_path": "d3m.primitives.data_transformation.construct_predictions.DataFrameCommon",
                "name": "Construct pipeline predictions output",
                "digest": "1bcf4fcd4ae79e0cb64033f471d6dbd7aab1ae71a65ed05ee21625e276a3ad0e"
            },
            "arguments": {
                "inputs": {
                    "type": "CONTAINER",
                    "data": "steps.9.produce"
                },
                "reference": {
                    "type": "CONTAINER",
                    "data": "steps.2.produce"
                }
            },
            "outputs": [
                {
                    "id": "produce"
                }
            ]
        },
        {
            "type": "PRIMITIVE",
            "primitive": {
                "id": "09a4cffa-a59f-30ac-b78f-101c35b3f7c6",
                "version": "2019.4.4",
                "python_path": "d3m.primitives.feature_selection.select_fwe.SKlearn",
                "name": "sklearn.feature_selection.univariate_selection.SelectFwe",
                "digest": "590e458652f3b3b337c5cdbe7cc1604a11f9e74cb4cca1fb86fa903fa614e947"
            },
            "arguments": {
                "inputs": {
                    "type": "CONTAINER",
                    "data": "steps.2.produce"
                },
                "outputs": {
                    "type": "CONTAINER",
                    "data": "steps.4.produce"
                }
            },
            "outputs": [
                {
                    "id": "produce"
                }
            ],
            "hyperparams": {
                "use_semantic_types": {
                    "type": "VALUE",
                    "data": true
                },
                "return_result": {
                    "type": "VALUE",
                    "data": "replace"
                }
            }
        },
        {
            "type": "PRIMITIVE",
            "primitive": {
                "id": "85e5c88d-9eec-3452-8f2f-414f17d3e4d5",
                "version": "2019.4.4",
                "python_path": "d3m.primitives.classification.passive_aggressive.SKlearn",
                "name": "sklearn.linear_model.passive_aggressive.PassiveAggressiveClassifier",
                "digest": "86517aa50f24f7d52c4da9ebba87b318b97342237c6ce689ffab364140408ae4"
            },
            "arguments": {
                "inputs": {
                    "type": "CONTAINER",
                    "data": "steps.11.produce"
                },
                "outputs": {
                    "type": "CONTAINER",
                    "data": "steps.11.produce"
                }
            },
            "outputs": [
                {
                    "id": "produce"
                }
            ],
            "hyperparams": {
                "use_semantic_types": {
                    "type": "VALUE",
                    "data": true
                },
                "return_result": {
                    "type": "VALUE",
                    "data": "replace"
                }
            }
        },
        {
            "type": "PRIMITIVE",
            "primitive": {
                "id": "8d38b340-f83f-4877-baaa-162f8e551736",
                "version": "0.3.0",
                "python_path": "d3m.primitives.data_transformation.construct_predictions.DataFrameCommon",
                "name": "Construct pipeline predictions output",
                "digest": "1bcf4fcd4ae79e0cb64033f471d6dbd7aab1ae71a65ed05ee21625e276a3ad0e"
            },
            "arguments": {
                "inputs": {
                    "type": "CONTAINER",
                    "data": "steps.12.produce"
                },
                "reference": {
                    "type": "CONTAINER",
                    "data": "steps.2.produce"
                }
            },
            "outputs": [
                {
                    "id": "produce"
                }
            ]
        },
        {
            "type": "PRIMITIVE",
            "primitive": {
                "id": "aff6a77a-faa0-41c5-9595-de2e7f7c4760",
                "version": "0.2.0",
                "python_path": "d3m.primitives.data_transformation.horizontal_concat.DataFrameConcat",
                "name": "Concatenate two dataframes",
                "digest": "9d84d97738d4d5b895f09242951461a1b2f04aae135c1c2987cf3d8021259b1f"
            },
            "arguments": {
                "left": {
                    "type": "CONTAINER",
                    "data": "steps.7.produce"
                },
                "right": {
                    "type": "CONTAINER",
                    "data": "steps.10.produce"
                }
            },
            "outputs": [
                {
                    "id": "produce"
                }
            ]
        },
        {
            "type": "PRIMITIVE",
            "primitive": {
                "id": "aff6a77a-faa0-41c5-9595-de2e7f7c4760",
                "version": "0.2.0",
                "python_path": "d3m.primitives.data_transformation.horizontal_concat.DataFrameConcat",
                "name": "Concatenate two dataframes",
                "digest": "9d84d97738d4d5b895f09242951461a1b2f04aae135c1c2987cf3d8021259b1f"
            },
            "arguments": {
                "left": {
                    "type": "CONTAINER",
                    "data": "steps.14.produce"
                },
                "right": {
                    "type": "CONTAINER",
                    "data": "steps.13.produce"
                }
            },
            "outputs": [
                {
                    "id": "produce"
                }
            ]
        },
        {
            "type": "PRIMITIVE",
            "primitive": {
                "id": "7b067a78-4ad4-411d-9cf9-87bcee38ac73",
                "version": "0.2.0",
                "python_path": "d3m.primitives.data_transformation.rename_duplicate_name.DataFrameCommon",
                "name": "Rename all the duplicated name column in DataFrame",
                "digest": "ed419494326340a5160d3a37e6c3d7cc32386a1c3f18a06c39e1e2040800fedc"
            },
            "arguments": {
                "inputs": {
                    "type": "CONTAINER",
                    "data": "steps.15.produce"
                }
            },
            "outputs": [
                {
                    "id": "produce"
                }
            ]
        },
        {
            "type": "PRIMITIVE",
            "primitive": {
              "id": "dsbox-vertical-concat",
              "version": "1.5.2",
              "python_path": "d3m.primitives.data_preprocessing.vertical_concatenate.DSBOX",
              "name": "DSBox vertically concat",
              "digest": "c30c68e07fee418539b8ba7c5ce14265f68cb9814f5b371b56bea02fd4791f56"
            },
            "arguments": {
              "inputs": {
                "type": "CONTAINER",
                "data": [
                  "steps.7.produce",
                  "steps.10.produce",
                  "steps.13.produce"
                ]
              }
            },
            "outputs": [
              {
                "id": "produce"
              }
            ]
          },
      
        {
            "type": "PRIMITIVE",
            "primitive": {
                "id": "dsbox-ensemble-voting",
                "version": "1.5.1",
                "python_path": "d3m.primitives.classification.ensemble_voting.DSBOX",
                "name": "DSBox ensemble voting"
            },
            "arguments": {
                "inputs": {
                    "type": "CONTAINER",
                    "data": "steps.17.produce"
                }
            },
            "outputs": [
                {
                    "id": "produce"
                }
            ]
        },
        {
            "type": "PRIMITIVE",
            "primitive": {
              "id": "8d38b340-f83f-4877-baaa-162f8e551736",
              "version": "0.3.0",
              "python_path": "d3m.primitives.data_transformation.construct_predictions.DataFrameCommon",
              "name": "Construct pipeline predictions output"
            },
            "arguments": {
              "inputs": {
                "type": "CONTAINER",
                "data": "steps.18.produce"
              },
              "reference": {
                "type": "CONTAINER",
                "data": "steps.2.produce"
              }
            },
            "outputs": [
              {
                "id": "produce"
              }
            ]
          }
    ],
    "digest": "9806370ea7c395a4685b1bfcc7c6fa23249f9610592810bc2fb9f465cfdc867e"
}