{
    "id": "fc50894a-3bb7-4623-a8a3-8a053aa72daf",
    "schema": "https://metadata.datadrivendiscovery.org/schemas/v0/pipeline.json",
    "created": "2020-07-18T20:50:24.333007Z",
    "inputs": [
        {
            "name": "inputs"
        }
    ],
    "outputs": [
        {
            "data": "steps.5.produce",
            "name": "output predictions"
        }
    ],
    "steps": [
        {
            "type": "PRIMITIVE",
            "primitive": {
                "id": "f31f8c1f-d1c5-43e5-a4b2-2ae4a761ef2e",
                "version": "0.2.0",
                "python_path": "d3m.primitives.data_transformation.denormalize.Common",
                "name": "Denormalize datasets",
                "digest": "5ec2ce5eeaaada3fad7735605b8d481a8b101d4d3d8cff87fc619ade414901e7"
            },
            "arguments": {
                "inputs": {
                    "type": "CONTAINER",
                    "data": "inputs.0"
                }
            },
            "outputs": [
                {
                    "id": "produce"
                }
            ]
        },
        {
            "type": "PRIMITIVE",
            "primitive": {
                "id": "4b42ce1e-9b98-4a25-b68e-fad13311eb65",
                "version": "0.3.0",
                "python_path": "d3m.primitives.data_transformation.dataset_to_dataframe.Common",
                "name": "Extract a DataFrame from a Dataset",
                "digest": "f64a23466b0e4490b5fdef630a5d1ecb5cfd9bbd0c34c8ccb3dbd557b4d5a918"
            },
            "arguments": {
                "inputs": {
                    "type": "CONTAINER",
                    "data": "steps.0.produce"
                }
            },
            "outputs": [
                {
                    "id": "produce"
                }
            ]
        },
        {
            "type": "PRIMITIVE",
            "primitive": {
                "id": "e193afa1-b45e-4d29-918f-5bb1fa3b88a7",
                "version": "0.2.0",
                "python_path": "d3m.primitives.schema_discovery.profiler.Common",
                "name": "Determine missing semantic types for columns automatically",
                "digest": "09a959be9f65330422bc66b1c0e207cc2981ca0aa8ee7e5b12b246937984f652"
            },
            "arguments": {
                "inputs": {
                    "type": "CONTAINER",
                    "data": "steps.1.produce"
                }
            },
            "outputs": [
                {
                    "id": "produce"
                }
            ]
        },
        {
            "type": "PRIMITIVE",
            "primitive": {
                "id": "8f2e51e8-da59-456d-ae29-53912b2b9f3d",
                "version": "0.2.0",
                "python_path": "d3m.primitives.data_preprocessing.image_reader.Common",
                "name": "Columns image reader",
                "digest": "6d4cd3eacd67ea6791b1b0486e0dc531885f094731c61705d57d91e8d3f8123a"
            },
            "arguments": {
                "inputs": {
                    "type": "CONTAINER",
                    "data": "steps.2.produce"
                }
            },
            "outputs": [
                {
                    "id": "produce"
                }
            ]
        },
        {
            "type": "PRIMITIVE",
            "primitive": {
                "id": "11ca2c30-576d-40cf-ab65-24e6c114a160",
                "version": "0.1.0",
                "python_path": "d3m.primitives.classification.multilayer_perceptron.UBC",
                "name": "Neural Network Classifier",
                "digest": "4f632759d5622ed53a33ef4875e18eb479447e612927f364f5ed678f731bbf73"
            },
            "arguments": {
                "inputs": {
                    "type": "CONTAINER",
                    "data": "steps.3.produce"
                },
                "outputs": {
                    "type": "CONTAINER",
                    "data": "steps.1.produce"
                }
            },
            "outputs": [
                {
                    "id": "produce"
                }
            ],
            "hyperparams": {
                "input_dim": {
                    "type": "VALUE",
                    "data": 256
                },
                "output_dim": {
                    "type": "VALUE",
                    "data": 10
                },
                "depth": {
                    "type": "VALUE",
                    "data": 2
                },
                "width": {
                    "type": "VALUE",
                    "data": 64
                },
                "use_batch_norm": {
                    "type": "VALUE",
                    "data": true
                },
                "activation_type": {
                    "type": "VALUE",
                    "data": "leaky_relu"
                },
                "num_iterations": {
                    "type": "VALUE",
                    "data": 500
                }
            }
        },
        {
            "type": "PRIMITIVE",
            "primitive": {
                "id": "8d38b340-f83f-4877-baaa-162f8e551736",
                "version": "0.3.0",
                "python_path": "d3m.primitives.data_transformation.construct_predictions.Common",
                "name": "Construct pipeline predictions output",
                "digest": "77da1bc7ef57cf3bf6c0d72a8917fb5d337fd05b151a20b31836ddd0c041824b"
            },
            "arguments": {
                "inputs": {
                    "type": "CONTAINER",
                    "data": "steps.4.produce"
                },
                "reference": {
                    "type": "CONTAINER",
                    "data": "steps.1.produce"
                }
            },
            "outputs": [
                {
                    "id": "produce"
                }
            ]
        }
    ],
    "digest": "fc9b4d5335465ac659ce9b8fd159e3b1ef0f28fabe95e71692eab60308687ad9"
}