{
    "id": "4cff2477-8308-40c4-9469-e8b9445997e2",
    "schema": "https://metadata.datadrivendiscovery.org/schemas/v0/pipeline.json",
    "created": "2019-06-20T16:13:30.006912Z",
    "inputs": [
        {
            "name": "inputs"
        }
    ],
    "outputs": [
        {
            "data": "steps.2.produce",
            "name": "Predictions"
        }
    ],
    "steps": [
        {
            "type": "PRIMITIVE",
            "primitive": {
                "id": "09f2eea8-667c-44b8-a955-6a153ba9ccc3",
                "version": "0.1.0",
                "python_path": "d3m.primitives.link_prediction.data_conversion.JHU",
                "name": "jhu.link_pred_graph_reader",
                "digest": "6fb4610e9dd14d537c62afbc091d2ab2dcedf81d0c3bb62ece6a22e3ed3fb994"
            },
            "arguments": {
                "inputs": {
                    "type": "CONTAINER",
                    "data": "inputs.0"
                }
            },
            "outputs": [
                {
                    "id": "produce"
                }
            ]
        },
        {
            "type": "PRIMITIVE",
            "primitive": {
                "id": "b940ccbd-9e9b-3166-af50-210bfd79251b",
                "version": "0.1.0",
                "python_path": "d3m.primitives.data_transformation.adjacency_spectral_embedding.JHU",
                "name": "jhu.ase",
                "digest": "c025429cfbad21bd2a9ef9d19aa153f9bf35ca8413da2c71726a19f7015e800f"
            },
            "arguments": {
                "inputs": {
                    "type": "CONTAINER",
                    "data": "steps.0.produce"
                }
            },
            "outputs": [
                {
                    "id": "produce"
                }
            ],
            "hyperparams": {
                "which_elbow": {
                    "type": "VALUE",
                    "data": 1
                },
                "max_dimension": {
                    "type": "VALUE",
                    "data": 2
                },
                "use_attributes": {
                    "type": "VALUE",
                    "data": false
                }
            }
        },
        {
            "type": "PRIMITIVE",
            "primitive": {
                "id": "25e97696-b96f-4f5c-8620-b340fe83414d",
                "version": "0.1.0",
                "python_path": "d3m.primitives.link_prediction.rank_classification.JHU",
                "name": "jhu.link_pred_rc",
                "digest": "2305095f15c29afcf40a0590e62eeb2fef28cc0ec4561c9a19e5e27bad76cac4"
            },
            "arguments": {
                "inputs": {
                    "type": "CONTAINER",
                    "data": "steps.1.produce"
                }
            },
            "outputs": [
                {
                    "id": "produce"
                }
            ]
        }
    ],
    "digest": "075691605bb5001de18dead06f977adbb9484a6355d453b71f407323fb167c46"
}