{
    "id": "f99cccf9-523f-4612-bab5-4c51519bc07e",
    "schema": "https://metadata.datadrivendiscovery.org/schemas/v0/pipeline.json",
    "created": "2020-02-06T15:18:40.792662Z",
    "inputs": [
        {
            "name": "inputs"
        }
    ],
    "outputs": [
        {
            "data": "steps.2.produce",
            "name": "Predictions"
        }
    ],
    "steps": [
        {
            "type": "PRIMITIVE",
            "primitive": {
                "id": "09f2eea8-667c-44b8-a955-6a153ba9ccc3",
                "version": "0.1.0",
                "python_path": "d3m.primitives.link_prediction.data_conversion.JHU",
                "name": "jhu.link_pred_graph_reader",
                "digest": "e1319de5f4b7b1ea151a36c27ebfd2c54cc8e0aa3bc7ca2c2389c23cf8f94fda"
            },
            "arguments": {
                "inputs": {
                    "type": "CONTAINER",
                    "data": "inputs.0"
                }
            },
            "outputs": [
                {
                    "id": "produce"
                }
            ]
        },
        {
            "type": "PRIMITIVE",
            "primitive": {
                "id": "b940ccbd-9e9b-3166-af50-210bfd79251b",
                "version": "0.1.0",
                "python_path": "d3m.primitives.data_transformation.adjacency_spectral_embedding.JHU",
                "name": "jhu.ase",
                "digest": "3cbd6174108480534a51539325fb18d55587745d0f9f6d30286352860ec3798b"
            },
            "arguments": {
                "inputs": {
                    "type": "CONTAINER",
                    "data": "steps.0.produce"
                }
            },
            "outputs": [
                {
                    "id": "produce"
                }
            ],
            "hyperparams": {
                "which_elbow": {
                    "type": "VALUE",
                    "data": 1
                },
                "max_dimension": {
                    "type": "VALUE",
                    "data": 2
                },
                "use_attributes": {
                    "type": "VALUE",
                    "data": false
                }
            }
        },
        {
            "type": "PRIMITIVE",
            "primitive": {
                "id": "25e97696-b96f-4f5c-8620-b340fe83414d",
                "version": "0.1.0",
                "python_path": "d3m.primitives.link_prediction.rank_classification.JHU",
                "name": "jhu.link_pred_rc",
                "digest": "838556adf0beb7d3bfa13df974b6e6f65b4aaecf92dcc37b7112d53ce68ec36c"
            },
            "arguments": {
                "inputs": {
                    "type": "CONTAINER",
                    "data": "steps.1.produce"
                }
            },
            "outputs": [
                {
                    "id": "produce"
                }
            ]
        }
    ],
    "digest": "0e7a007617c05a0c8c11b206daea14fb74958fdfca6f7830bb220826729d925e"
}