{
    "created": "2019-06-17T16:53:23.164042Z",
    "digest": "27a6d724f8a87a335fb487c20e13fc2e28a330eb58517c12996a8ec42afc4f49",
    "id": "9a21f616-361c-4cfc-a7d8-970e954b8f9a",
    "inputs": [
        {
            "name": "inputs"
        }
    ],
    "outputs": [
        {
            "data": "steps.9.produce",
            "name": "output predictions"
        }
    ],
    "schema": "https://metadata.datadrivendiscovery.org/schemas/v0/pipeline.json",
    "steps": [
        {
            "arguments": {
                "inputs": {
                    "data": "inputs.0",
                    "type": "CONTAINER"
                }
            },
            "outputs": [
                {
                    "id": "produce"
                }
            ],
            "primitive": {
                "digest": "e557fc176af67913ed241dbe793cf986439157cfe9c4a12f1aafcba3c07b8b6f",
                "id": "4b42ce1e-9b98-4a25-b68e-fad13311eb65",
                "name": "Extract a DataFrame from a Dataset",
                "python_path": "d3m.primitives.data_transformation.dataset_to_dataframe.Common",
                "version": "0.3.0"
            },
            "type": "PRIMITIVE"
        },
        {
            "arguments": {
                "inputs": {
                    "data": "steps.0.produce",
                    "type": "CONTAINER"
                }
            },
            "hyperparams": {
                "columns": {
                    "data": [
                        3,
                        6,
                        25
                    ],
                    "type": "VALUE"
                },
                "semantic_types": {
                    "data": [
                        "https://metadata.datadrivendiscovery.org/types/Attribute"
                    ],
                    "type": "VALUE"
                }
            },
            "outputs": [
                {
                    "id": "produce"
                }
            ],
            "primitive": {
                "digest": "a968b41c87cb6bc61fa79f1c8aee122ce5c6005d72d5a3b1386d68c669e49338",
                "id": "3002bc5b-fa47-4a3d-882e-a8b5f3d756aa",
                "name": "Remove semantic types from columns",
                "python_path": "d3m.primitives.data_transformation.remove_semantic_types.DataFrameCommon",
                "version": "0.1.0"
            },
            "type": "PRIMITIVE"
        },
        {
            "arguments": {
                "inputs": {
                    "data": "steps.1.produce",
                    "type": "CONTAINER"
                }
            },
            "outputs": [
                {
                    "id": "produce"
                }
            ],
            "primitive": {
                "digest": "7e16e2b1e559690e221de471826d7d1cd36698bc5140dc00f3c7a6c6b711c3b2",
                "id": "d510cb7a-1782-4f51-b44c-58f0236e47c7",
                "name": "Parses strings into their types",
                "python_path": "d3m.primitives.data_transformation.column_parser.DataFrameCommon",
                "version": "0.5.0"
            },
            "type": "PRIMITIVE"
        },
        {
            "arguments": {
                "inputs": {
                    "data": "steps.2.produce",
                    "type": "CONTAINER"
                }
            },
            "hyperparams": {
                "semantic_types": {
                    "data": [
                        "https://metadata.datadrivendiscovery.org/types/Attribute"
                    ],
                    "type": "VALUE"
                }
            },
            "outputs": [
                {
                    "id": "produce"
                }
            ],
            "primitive": {
                "digest": "d4fa27a3e215b89d2231d344ec0202e1b8e41ad322deb79c68fd6ca673eae3f7",
                "id": "4503a4c6-42f7-45a1-a1d4-ed69699cf5e1",
                "name": "Extracts columns by semantic type",
                "python_path": "d3m.primitives.data_transformation.extract_columns_by_semantic_types.DataFrameCommon",
                "version": "0.2.0"
            },
            "type": "PRIMITIVE"
        },
        {
            "arguments": {
                "inputs": {
                    "data": "steps.3.produce",
                    "type": "CONTAINER"
                }
            },
            "hyperparams": {
                "strategy": {
                    "data": "most_frequent",
                    "type": "VALUE"
                }
            },
            "outputs": [
                {
                    "id": "produce"
                }
            ],
            "primitive": {
                "digest": "1933705a04d8da0c4a34f4d4fc2ec4c9d826abaea53bc073b654588daaa5988d",
                "id": "d016df89-de62-3c53-87ed-c06bb6a23cde",
                "name": "sklearn.impute.SimpleImputer",
                "python_path": "d3m.primitives.data_cleaning.imputer.SKlearn",
                "version": "2019.6.7"
            },
            "type": "PRIMITIVE"
        },
        {
            "arguments": {
                "inputs": {
                    "data": "steps.4.produce",
                    "type": "CONTAINER"
                }
            },
            "outputs": [
                {
                    "id": "produce"
                }
            ],
            "primitive": {
                "digest": "6eda6d3d9b4243979006810b0deb179dfe176b6f85ecd00a2ee85938203b4beb",
                "id": "854727ed-c82c-3137-ac59-fd52bc9ba385",
                "name": "sklearn.preprocessing.data.RobustScaler",
                "python_path": "d3m.primitives.data_preprocessing.robust_scaler.SKlearn",
                "version": "2019.6.7"
            },
            "type": "PRIMITIVE"
        },
        {
            "arguments": {
                "inputs": {
                    "data": "steps.2.produce",
                    "type": "CONTAINER"
                }
            },
            "hyperparams": {
                "semantic_types": {
                    "data": [
                        "https://metadata.datadrivendiscovery.org/types/TrueTarget"
                    ],
                    "type": "VALUE"
                }
            },
            "outputs": [
                {
                    "id": "produce"
                }
            ],
            "primitive": {
                "digest": "d4fa27a3e215b89d2231d344ec0202e1b8e41ad322deb79c68fd6ca673eae3f7",
                "id": "4503a4c6-42f7-45a1-a1d4-ed69699cf5e1",
                "name": "Extracts columns by semantic type",
                "python_path": "d3m.primitives.data_transformation.extract_columns_by_semantic_types.DataFrameCommon",
                "version": "0.2.0"
            },
            "type": "PRIMITIVE"
        },
        {
            "arguments": {
                "inputs": {
                    "data": "steps.5.produce",
                    "type": "CONTAINER"
                },
                "outputs": {
                    "data": "steps.6.produce",
                    "type": "CONTAINER"
                }
            },
            "hyperparams": {
                "method": {
                    "data": "pseudoBayesian",
                    "type": "VALUE"
                },
                "nbins": {
                    "data": 16,
                    "type": "VALUE"
                }
            },
            "outputs": [
                {
                    "id": "produce"
                }
            ],
            "primitive": {
                "digest": "f75ffbdb8899082eb190bcd211aec1b303dd7d27228a26d450c34c603fa051f7",
                "id": "9d1a2e58-5f97-386c-babd-5a9b4e9b6d6c",
                "name": "STMBplus_auto feature selector",
                "python_path": "d3m.primitives.feature_selection.simultaneous_markov_blanket.AutoRPI",
                "version": "v2019.6"
            },
            "type": "PRIMITIVE"
        },
        {
            "arguments": {
                "inputs": {
                    "data": "steps.7.produce",
                    "type": "CONTAINER"
                },
                "outputs": {
                    "data": "steps.6.produce",
                    "type": "CONTAINER"
                }
            },
            "hyperparams": {
                "learning_rate": {
                    "data": 0.3125,
                    "type": "VALUE"
                },
                "n_estimators": {
                    "data": 32,
                    "type": "VALUE"
                }
            },
            "outputs": [
                {
                    "id": "produce"
                }
            ],
            "primitive": {
                "digest": "3b5eab6aa4279356f83d219f9e943792eded4ba7baae4b99e7ed34a9af949bcd",
                "id": "01d2c086-91bf-3ca5-b023-5139cf239c77",
                "name": "sklearn.ensemble.gradient_boosting.GradientBoostingClassifier",
                "python_path": "d3m.primitives.classification.gradient_boosting.SKlearn",
                "version": "2019.6.7"
            },
            "type": "PRIMITIVE"
        },
        {
            "arguments": {
                "inputs": {
                    "data": "steps.8.produce",
                    "type": "CONTAINER"
                },
                "reference": {
                    "data": "steps.0.produce",
                    "type": "CONTAINER"
                }
            },
            "outputs": [
                {
                    "id": "produce"
                }
            ],
            "primitive": {
                "digest": "077921b0d6cee9bbda9494bc60c8b48f8287db8d0bff674056a7c9e5cc92ebb9",
                "id": "8d38b340-f83f-4877-baaa-162f8e551736",
                "name": "Construct pipeline predictions output",
                "python_path": "d3m.primitives.data_transformation.construct_predictions.DataFrameCommon",
                "version": "0.3.0"
            },
            "type": "PRIMITIVE"
        }
    ]
}